-16 -16 -72 -8 848
-72 -8 -16 -16 -40 -32 -8 -8 -8 -8 696
-48 -40 -72 -64 -48 -40 -32 -16 -8 -8 536
-64 -72 -16 -56 -80 -24 -24 -24 -8 552
-56 -8 912
-80 -8 -40 -64 -56 -80 -40 -16 -16 -32 -8 -8 448
-32 -40 -56 -24 -16 -8 768
-8 16 -48 -56 -72 -56 -32 -32 -24 576
-48 -8 920
-64 -16 -32 -40 -64 -24 -16 -8 -8 -8 632
-40 -64 -48 -80 -56 -56 -8 -24 552
-64 -8 904
-80 -8 -48 -24 -16 -64 -16 -8 664
-48 -32 -16 -32 -48 -72 -32 -24 -24 -24 560
-40 -24 -80 56 -80 672
-32 -48 -16 872
-48 -80 -16 824
-32 -32 16 -56 -8 -80 -72 -24 -32 -24 536
-24 -24 -56 -72 -16 -32 -24 -24 -8 -8 624
-16 -40 -80 -56 -56 -56 -8 -32 -8 568
