232 -120 624
-120 864
-24 -40 -16 -232 -280 360
-272 712
-96 -256 -40 576
216 -256 504
176 -232 568
-80 904
-88 896
-128 856
-256 728
-144 840
-272 712
-32 952
192 -48 736
-248 736
208 -32 736
-312 -120 8 -256 264
304 -280 392
-40 944
