-40 944
-40 -24 912
40 -24 912
72 -24 880
-176 448 -96 248
-176 808
992
24 -176 -576 -192
-24 176 -576 -192
-24 -176 -192 576
24 -176 -576 192
-976 8
8 -960 8
8 -8 -960
-160 160 -160 160 -160 152
-24 -40 -40 864
24 -40 -40 864
-8 8 -40 -40 864
-8 56 -40 864
-8 8 -8 8 -8 8 -8 40 -8 8 -8 8 -8 8 -8 8 -8 8 -8 8 -8 8 -8 8 -8 8 -8 8 -8 8 -8 8 -8 8 -8 8 -8 8 -8 8 -8 8 -8 8 -8 8 -8 8 -8 8 -8 8 -8 8 -8 8 -8 8 -8 16
